{
  "swagger": "2.0",
  "info": {
    "version": "1.0.2",
    "title": "Event API",
    "description": "Eevent Rest API"
  },
  "basePath": "/api",
  "schemes": [
    "http",
    "https"
  ],
  "consumes": [
    "application/json"
  ],
  "produces": [
    "application/json"
  ],
  "tags": [
    {
      "name": "event",
      "description": "Event resource"
    }
  ],
  "paths": {
    "/event": {
      "x-swagger-router-controller": "event",
      "post": {
        "tags": [
          "event"
        ],
        "description": "Send event",
        "operationId": "send",
        "parameters": [
          {
            "name": "body",
            "in": "body",
            "description": "Event object",
            "required": true,
            "schema": {
              "$ref": "#/definitions/Event"
            }
          }
        ],
        "responses": {
          "200": {
            "description": "Success"
          },
          "default": {
            "description": "Error",
            "schema": {
              "$ref": "#/definitions/ErrorResponse"
            }
          }
        }
      }
    }
  },
  "definitions": {
    "ErrorResponse": {
      "required": [
        "message"
      ],
      "properties": {
        "message": {
          "type": "string"
        }
      }
    },
    "Event": {
      "type": "object",
      "properties": {
        "timestamp": {
          "type": "integer",
          "description": "timestamp epoch mill."
        },
        "device_id": {
          "type": "string",
          "description": "device id"
        },
        "device_type": {
          "type": "string",
          "description": "device type"
        },
        "descrption": {
          "type": "string",
          "description": "Additional information"
        }
      }
    }
  }
}